// Jest Snapshot v1, https://goo.gl/fbAQLP

exports[`Hallway Renders correctly when numberOfDoors and doorOpenClassName are supplied 1`] = `
<div>
  <div
    className="door-container"
  >
    <div
      className="door-group"
    >
      <div
        className="door undefined"
      >
        <h1>
          Door #
          1
        </h1>
        <p>
          What's behind Door #1?
        </p>
      </div>
      <button
        onClick={[Function]}
      >
        Open
      </button>
    </div>
    <div
      className="door-group"
    >
      <div
        className="door undefined"
      >
        <h1>
          Door #
          2
        </h1>
        <p>
          What's behind Door #2?
        </p>
      </div>
      <button
        onClick={[Function]}
      >
        Open
      </button>
    </div>
    <div
      className="door-group"
    >
      <div
        className="door undefined"
      >
        <h1>
          Door #
          3
        </h1>
        <p>
          What's behind Door #3?
        </p>
      </div>
      <button
        onClick={[Function]}
      >
        Open
      </button>
    </div>
  </div>
  <button
    onClick={[Function]}
  >
    Close
  </button>
  <p>
    0
  </p>
</div>
`;

exports[`Hallway Renders correctly when numberOfDoors is supplied 1`] = `
<div>
  <div
    className="door-container"
  >
    <div
      className="door-group"
    >
      <div
        className="door undefined"
      >
        <h1>
          Door #
          1
        </h1>
        <p>
          What's behind Door #1?
        </p>
      </div>
      <button
        onClick={[Function]}
      >
        Open
      </button>
    </div>
    <div
      className="door-group"
    >
      <div
        className="door undefined"
      >
        <h1>
          Door #
          2
        </h1>
        <p>
          What's behind Door #2?
        </p>
      </div>
      <button
        onClick={[Function]}
      >
        Open
      </button>
    </div>
    <div
      className="door-group"
    >
      <div
        className="door undefined"
      >
        <h1>
          Door #
          3
        </h1>
        <p>
          What's behind Door #3?
        </p>
      </div>
      <button
        onClick={[Function]}
      >
        Open
      </button>
    </div>
  </div>
  <button
    onClick={[Function]}
  >
    Close
  </button>
  <p>
    0
  </p>
</div>
`;

exports[`Hallway Renders correctly when numberOfDoors, doorOpenClassName, and doorClosedClassName are supplied 1`] = `
<div>
  <div
    className="door-container"
  >
    <div
      className="door-group"
    >
      <div
        className="door door-closed-test"
      >
        <h1>
          Door #
          1
        </h1>
        <p>
          What's behind Door #1?
        </p>
      </div>
      <button
        onClick={[Function]}
      >
        Open
      </button>
    </div>
    <div
      className="door-group"
    >
      <div
        className="door door-closed-test"
      >
        <h1>
          Door #
          2
        </h1>
        <p>
          What's behind Door #2?
        </p>
      </div>
      <button
        onClick={[Function]}
      >
        Open
      </button>
    </div>
    <div
      className="door-group"
    >
      <div
        className="door door-closed-test"
      >
        <h1>
          Door #
          3
        </h1>
        <p>
          What's behind Door #3?
        </p>
      </div>
      <button
        onClick={[Function]}
      >
        Open
      </button>
    </div>
  </div>
  <button
    onClick={[Function]}
  >
    Close
  </button>
  <p>
    0
  </p>
</div>
`;

exports[`Hallway Renders correctly when numberOfDoors, doorOpenClassName, doorClosedClassName, and buttonPrimaryClassName are supplied 1`] = `
<div>
  <div
    className="door-container"
  >
    <div
      className="door-group"
    >
      <div
        className="door door-closed-test"
      >
        <h1>
          Door #
          1
        </h1>
        <p>
          What's behind Door #1?
        </p>
      </div>
      <button
        className="btn-test btn-primary-test"
        onClick={[Function]}
      >
        Open
      </button>
    </div>
    <div
      className="door-group"
    >
      <div
        className="door door-closed-test"
      >
        <h1>
          Door #
          2
        </h1>
        <p>
          What's behind Door #2?
        </p>
      </div>
      <button
        className="btn-test btn-primary-test"
        onClick={[Function]}
      >
        Open
      </button>
    </div>
    <div
      className="door-group"
    >
      <div
        className="door door-closed-test"
      >
        <h1>
          Door #
          3
        </h1>
        <p>
          What's behind Door #3?
        </p>
      </div>
      <button
        className="btn-test btn-primary-test"
        onClick={[Function]}
      >
        Open
      </button>
    </div>
  </div>
  <button
    onClick={[Function]}
  >
    Close
  </button>
  <p>
    0
  </p>
</div>
`;

exports[`Hallway Renders correctly when numberOfDoors, doorOpenClassName, doorClosedClassName, buttonPrimaryClassName, and buttonSecondaryClassName are supplied 1`] = `
<div>
  <div
    className="door-container"
  >
    <div
      className="door-group"
    >
      <div
        className="door door-closed-test"
      >
        <h1>
          Door #
          1
        </h1>
        <p>
          What's behind Door #1?
        </p>
      </div>
      <button
        className="btn-test btn-primary-test"
        onClick={[Function]}
      >
        Open
      </button>
    </div>
    <div
      className="door-group"
    >
      <div
        className="door door-closed-test"
      >
        <h1>
          Door #
          2
        </h1>
        <p>
          What's behind Door #2?
        </p>
      </div>
      <button
        className="btn-test btn-primary-test"
        onClick={[Function]}
      >
        Open
      </button>
    </div>
    <div
      className="door-group"
    >
      <div
        className="door door-closed-test"
      >
        <h1>
          Door #
          3
        </h1>
        <p>
          What's behind Door #3?
        </p>
      </div>
      <button
        className="btn-test btn-primary-test"
        onClick={[Function]}
      >
        Open
      </button>
    </div>
  </div>
  <button
    className="btn-test btn-secondary-test"
    onClick={[Function]}
  >
    Close
  </button>
  <p>
    0
  </p>
</div>
`;
